{"properties": [
  {
    "name": "fno.username",
    "type": "java.lang.String",
    "description": "A description for 'fno.username'"
  },
  {
    "name": "fno.password",
    "type": "java.lang.String",
    "description": "A description for 'fno.password'"
  },
  {
    "name": "fno.hostname",
    "type": "java.lang.String",
    "description": "A description for 'fno.hostname'"
  },
  {
    "name": "fno.domain",
    "type": "java.lang.String",
    "description": "A description for 'fno.domain'"
  }
]}